<svg width="16" height="16" viewBox="0 0 16 16" fill="none" xmlns="http://www.w3.org/2000/svg">
<g clip-path="url(#clip0)">
<path d="M15.8732 6.15966L10.7841 0.201133C10.5876 -0.0285407 10.2333 -0.0653752 9.98644 0.116631L8.21731 1.43942C8.09731 1.52934 8.02074 1.66151 8.0036 1.8056C7.98646 1.94969 8.03103 2.09378 8.12703 2.20645L11.7967 6.49984L8.12703 10.7932C8.03103 10.9059 7.98646 11.05 8.0036 11.1941C8.02074 11.3382 8.09731 11.4692 8.21845 11.5592L9.98644 12.883C10.0904 12.9621 10.215 13 10.3396 13C10.5064 13 10.671 12.9318 10.7841 12.7985L15.8732 6.84002C16.0424 6.64288 16.0424 6.35795 15.8732 6.15966Z" fill="#6848E2"/>
<path d="M7.87324 6.15842L2.78415 0.200973C2.58758 -0.0297843 2.23215 -0.0666189 1.9853 0.115387L0.217312 1.43926C0.0973129 1.52918 0.0207422 1.66135 0.00359944 1.80544C-0.0135433 1.94953 0.0310278 2.09362 0.127027 2.20629L3.79671 6.49968L0.127027 10.793C0.0310278 10.9057 -0.0135433 11.0498 0.00359944 11.1939C0.0207422 11.338 0.0973129 11.4691 0.218455 11.559L1.98644 12.8829C2.09044 12.9619 2.21501 12.9999 2.33958 12.9999C2.50643 12.9999 2.671 12.9316 2.78415 12.7983L7.87324 6.83982C8.04239 6.6416 8.04239 6.35667 7.87324 6.15842Z" fill="#1B374C"/>
</g>
<defs>
<clipPath id="clip0">
<rect width="16" height="16" fill="white"/>
</clipPath>
</defs>
</svg>
